005804
006935
004901
007077
001091
002643
001124
003694
002324
005439
002956
003339
000070
001348
000633
004940
003321
006035
001423
007387
006458
006201
003121
000520
004605
007408
003333
001233
006661
006480
007126
002952
000726
001548
002769
006951
003349
002898
003617
000646
006575
006652
004967
000209
007188
004869
000703
002178
005779
001519
000193
004546
006053
003947
000789
005142
006164
002888
000000
000130
001994
007075
000598
001279
004780
005711
003675
002059
004696
006299
001544
005937
004053
003193
003185
002857
001864
003838
007320
003476
007308
000337
004165
006573
002023
000103
000532
002906
004219
001819
004449
006722
004912
003819
004854
006653
002030
000827
002493
003967
001406
004073
002267
007231
002689
003307
005954
007431
006585
001609
001632
007073
005030
000701
003700
001205
004597
006076
003171
003997
002837
006294
004361
000947
001571
002249
005647
001160
002342
007362
003059
005005
005808
001540
004147
002403
001568
003774
006795
006502
004646
003122
003587
000054
006941
004247
001444
006861
003591
007372
000671
002868
005007
005526
001057
001902
004308
005835
007036
007159
002860
004400
004346
005317
002226
001449
003989
002144
003927
004674
000784
003130
007269
004543
000294
002271
003670
001911
002402
004627
002410
006552
005817
005888
003858
004844
003922
001029
003277
007427
002927
001970
004514
004252
004733
002507
004509
007223
000109
000288
002718
001256
003954
001208
006799
005301
001174
006892
005567
007017
003974
002117
006337
002617
004915
001777
002408
002799
001323
004595
003823
005924
001031
002671
005231
000744
003576
006308
004012
006158
003770
001036
004731
004093
003085
001161
002360
001300
007150
003797
002554
001509
005686
000298
000825
002247
003849
004192
002456
003164
004103
000957
004564
004973
006292
000368
001394
005324
005637
006471
000465
004580
005107
002485
006089
000695
002618
003786
001033
007237
006830
004594
004723
002739
005421
000673
002064
000783
003068
001282
000013
006485
007293
005456
005446
004151
004535
000835
005225
006209
005941
000786
006890
002776
002491
007173
000707
005678
002882
000690
007332
005130
006223
007220
005393
001761
003077
004427
003741
007181
006706
005470
000711
002430
001400
000828
002162
007417
003348
001581
005593
007305
003821
007190
006949
003889
002700
004795
002116
002610
006017
001834
001473
006554
000082
006124
003536
003060
003196
006920
000623
005269
001460
006155
002489
006025
006147
002443
001584
002047
003850
003710
000326
003111
002910
001313
006374
004922
003925
005451
000617
006975
000267
001737
003776
001098
001935
006823
004046
006443
003952
006375
004225
007025
000003
003297
004559
005956
007282
006347
007460
004879
001215
000215
007111
000821
004231
005768
004060
003596
005351
002122
003575
006487
004432
007378
007060
007108
004272
000096
003420
000304
007040
000934
003957
005896
002498
004678
000570
000299
000563
006383
006101
002447
005463
006359
000467
005003
006193
000824
000730
004495
004853
000534
007175
000900
000030
004761
006392
003400
006566
006171
001379
000901
003445
007009
004890
000240
007438
004316
006142
002431
000895
000444
006607
000584
003825
001338
000710
000629
001949
004451
002143
001805
001601
002438
007062
002808
000282
002265
006373
003613
003875
001657
006947
001297
002213
000029
003326
002969
007418
002026
001599
000738
001079
006986
006091
006541
006466
001724
005212
002316
005789
006230
005966
004600
001105
006934
003243
001005
000552
004302
001074
000954
002921
007441
003628
006522
005115
004584
006617
006065
004503
001433
007004
004972
005259
006051
002918
001912
002524
007321
001879
003028
000206
005836
003387
000925
007452
005150
003374
001185
002406
004023
003291
006699
001181
003842
005480
005492
006073
005247
004078
001028
003392
003717
005291
003983
001734
003625
000338
006129
001550
003951
005499
000439
003234
000603
003882
004262
002270
006526
005564
005000
007216
006672
006979
005392
000637
001947
002667
003680
001298
001975
000014
005753
005756
000123
000968
000607
000593
004453
003752
003727
004886
006309
000141
006327
005809
002238
005302
006865
007086
002066
001202
002835
001715
000202
001408
001871
007455
004936
000933
006207
005522
005402
004201
002932
002659
000653
001641
000687
005726
000525
004416
002186
003940
007295
005187
003089
000829
003191
004133
001784
000044
004075
006615
002909
006212
001186
004522
006289
002475
003125
003189
004365
001004
000820
001109
003354
003594
005205
002759
002396
000322
007113
000565
007127
001798
000654
005502
005681
006730
004539
003654
002467
003522
003475
004441
005549
007472
006217
002154
006252
003987
000056
005702
006384
001730
003427
006668
000723
003754
001756
000872
003431
000255
001810
003714
002642
004448
001793
006691
004279
006239
001321
002417
004354
000960
005047
001399
001385
006104
000434
004394
005331
006790
002242
006456
003152
007461
004656
000526
006510
006606
006697
004805
005305
003069
005875
002148
000989
006455
007399
004933
000375
006218
006921
000656
006966
006671
001865
003079
000822
007170
001361
003853
003241
004789
004123
001009
003742
003780
003268
004544
000676
001668
002777
001775
001085
005420
002195
004276
000793
007097
002795
004794
007241
004025
000259
002566
000640
005942
003098
001020
005361
004984
002145
003732
005599
003570
006665
002756
005722
000557
000083
004412
006430
004375
007148
002597
002437
005574
001151
007444
002098
001164
005624
001309
006015
005755
000664
007346
005089
002214
002072
003829
004320
001486
004463
003303
000995
001240
001679
002274
005877
002484
004310
004719
002592
007454
005401
004571
002719
001500
000421
000222
006970
002834
000125
003816
007124
007007
000405
006877
003818
001483
004677
006571
003227
006993
003999
006330
005737
004894
006984
005288
001753
005326
001836
004062
002899
004781
007386
005848
005414
006320
002018
003513
002782
004659
002395
004779
005868
006673
005148
001659
001530
003160
005780
005932
004510
001247
001452
006450
003896
003566
000036
005705
003884
003371
007296
002682
001539
003639
006684
004217
001907
002040
004244
005971
000171
005569
003086
005374
004833
004883
007193
003900
000101
006220
004728
004590
005344
004030
004204
005254
006580
000158
005204
007373
007367
003468
002665
007348
003673
002426
002936
000148
003815
000993
002363
001961
000017
005816
004987
003070
003791
004623
001047
002190
006279
006499
000411
003729
006235
006915
006032
007328
004315
000482
000661
007312
003418
006724
006848
007211
005861
007116
005151
005400
001072
000631
000890
002821
007236
002778
006991
000749
000962
003697
006939
001056
001117
002561
003458
000064
003143
001403
006557
004145
006463
000400
003865
001128
003345
003462
002448
006961
005454
004801
007096
005507
003944
004876
005561
006543
006513
001759
002328
003151
001491
001510
001159
006418
006995
005872
001229
005503
001498
003479
006421
001032
004635
004819
005667
001965
004141
007041
007128
004563
006108
002427
002097
003273
005626
003538
007356
006363
002472
001390
006419
006459
000832
005738
001081
004577
005968
001639
000257
006049
000300
005592
002607
003201
001503
007105
001064
003572
006387
001889
003290
007432
006974
000334
004134
000012
005475
004675
002850
002278
000416
005303
006716
005483
004413
007141
002768
000715
005920
001396
002501
002285
000808
007070
001608
003289
000380
005116
000870
003311
006262
000755
005915
003095
004866
004604
000114
004411
003237
000274
004965
005866
001370
006926
002508
002181
005314
007046
006236
003459
003120
007393
002147
002317
003309
003356
003642
001468
003758
006589
001464
000049
001674
004086
003993
005682
004857
005171
005383
003646
002194
000936
004035
004127
006189
005245
005356
001426
002471
001262
005598
004269
005609
002230
000732
004387
000651
005831
005382
000165
001630
005134
003441
003730
002704
004616
003473
002281
006281
002662
007263
003097
003959
003863
004322
006721
002873
007248
002708
001429
004257
005253
003930
005354
006805
006587
002060
006927
001465
001843
004054
001052
001747
001963
002444
001045
001290
002088
002652
001580
000540
006559
001175
005983
007099
002691
000445
006932
005853
001908
004006
000553
006390
005661
001368
006211
000264
000146
005403
006952
004179
006224
002731
002375
005098
000423
002510
006639
003163
003801
002734
007394
003537
007101
000785
002459
003041
006291
001248
001806
000462
004186
000502
005666
000275
007192
002864
007451
005718
000638
003876
006511
004968
000522
006957
000303
007406
005294
006467
001322
005239
006362
001763
000975
000387
004824
000594
005798
004198
000733
005501
003230
005071
006069
006689
005046
006225
007249
005645
004381
007142
001663
001604
007365
003910
001841
002980
001646
002305
005220
004707
000814
002212
004533
006523
006145
002874
003657
005858
001690
001209
001891
007314
004071
005012
005088
004631
000500
003508
002688
004560
004621
002349
006295
001349
000038
001681
004029
002632
001301
004614
002205
002333
003785
003991
000111
000935
001082
005748
001612
003813
001812
004992
004838
006376
006562
007102
006084
000586
002318
000833
005320
003440
002678
006064
000432
001457
002155
005674
003132
002452
003344
002683
003507
003169
007107
007114
003500
002832
002588
003695
006389
000513
003973
002527
002627
005516
006260
005352
001227
007313
004216
003599
003051
000643
002126
002807
006007
000095
001767
005209
000285
005929
004978
005691
003917
007404
001383
003335
004758
005096
006902
006820
000483
004809
003651
002223
005455
003824
005132
006040
005177
000914
007184
002578
002451
005048
001137
002141
004969
004080
002197
007307
004334
005491
006609
004991
003942
005644
002174
000026
000241
005243
002099
000775
002938
004785
002620
004765
004925
006896
005425
000898
005192
001833
006599
004750
000426
005295
003284
001815
005006
004455
005694
002513
005535
000233
000851
006601
002522
007340
004461
001993
002701
003685
002132
006037
002051
001474
005605
005154
005306
001288
002975
004798
001190
001277
006113
006192
006594
000945
004834
004238
006429
005632
000244
006404
003565
003674
003904
002996
002967
001593
000856
005406
000176
007459
000577
003026
002553
004930
003731
000185
000318
003104
003569
007153
002237
004961
005033
000075
005409
003592
000680
003457
002824
007093
001882
005973
006787
006817
001731
002567
000136
003208
006149
006310
000641
007259
001170
005842
003803
005478
005884
007140
004592
002350
006735
002741
000941
002770
003332
005346
006727
000865
006550
000672
001669
000057
003045
005100
005951
003928
004183
003733
007024
006705
004395
003893
002684
001327
004878
001166
001041
000818
006181
000842
002766
005710
006518
000587
004266
002655
001343
006216
004464
006140
002624
006774
000921
004457
004865
000456
006128
007191
005716
003721
004467
002854
001146
002256
004803
003423
006509
005257
004545
003012
003595
002236
007297
000616
003271
000621
006398
006644
001736
003640
004820
003128
000709
005310
005904
005193
005293
002545
005091
006183
006646
005897
003546
005943
002109
000507
007358
003542
001156
002852
003100
004208
005990
002053
002784
000950
003913
005993
006784
001090
001739
002374
003817
001703
002862
002941
005563
006105
005657
001575
000390
007270
000084
003867
001126
004043
006739
003451
001324
002884
002061
007370
006763
004760
002401
004211
005828
000627
005493
003439
001121
000678
006748
003452
006683
003117
004159
000662
005851
001001
000905
004258
007251
003248
003768
005930
004399
003578
003610
002608
004741
000978
004203
006905
002591
002515
004356
005223
004727
006988
002550
003205
002582
001832
003081
007155
005387
007143
006888
001418
005051
000753
007357
005606
001651
004663
002579
004778
003903
005936
003806
001293
003836
006191
003274
001223
005111
002129
002872
003064
001038
007243
007209
000110
003855
001512
006401
006399
004331
002441
002989
005764
005160
000977
004684
005216
005732
001743
001723
000120
004409
005537
006489
000597
003299
006055
003857
003113
003541
002817
004234
004166
001417
005087
004842
006150
002041
006018
002407
005407
006867
005327
000668
003840
005844
003810
000442
005044
003147
000010
005104
003514
007185
002986
002003
001618
004793
002716
001062
001676
004572
003381
003648
006663
000099
004366
000497
002263
003681
001367
003749
004701
005530
007388
003093
006648
001475
005029
003704
003577
002972
001142
006157
000867
006143
006180
002067
000757
004193
006251
005126
001955
002106
002134
005488
005648
002697
007151
007137
004518
005411
006746
000903
003320
006329
004751
006178
000550
007335
005440
007245
002664
004498
003660
006243
000537
003532
001623
005290
005529
000609
003075
006940
003327
001826
001757
002090
006099
003384
006839
003389
003186
004445
003383
000547
003413
006821
003795
001302
001492
003988
006875
000280
001285
001212
003693
002931
005799
001092
005066
004339
006170
004579
005513
005607
004681
001901
001122
003672
002970
000358
000261
004767
002394
001453
005772
004606
005442
004471
005464
006831
000994
005730
000688
005173
006834
001201
007050
007064
003328
001883
000539
006408
004476
004344
002698
006490
000511
001559
006824
001493
001024
005832
005399
003567
002733
001059
000887
003656
006963
001735
000697
003833
002326
005830
000055
001922
005018
001520
007428
005697
002523
004076
003637
001678
005974
004818
005761
005578
000996
005186
005628
002743
001476
004333
002020
003021
002468
002077
000032
002413
004980
003831
006598
000579
007228
001044
004492
002912
003072
005946
004052
003444
000113
002449
002105
003092
001773
005178
002790
001494
000951
004916
002409
000531
004900
006365
000791
002629
001638
000714
001939
001614
004653
006707
005410
006494
006285
000157
002549
000424
005084
001838
006750
007147
003287
005568
005027
004704
006422
004139
006801
000145
004417
002171
006284
005433
004268
002156
004410
003002
001354
000189
006878
006341
006539
005670
004619
001558
001971
000074
002605
002355
001728
000858
004550
004184
004554
005967
000163
007392
000666
006769
001839
006090
004643
002150
004911
006662
002929
006527
006864
006845
006622
001673
000112
000719
005438
002389
001649
000927
002785
002559
004593
000086
000686
004180
007250
005759
002670
006909
007104
002555
001938
003416
005585
000760
005890
002080
001003
007123
006166
000987
005519
001849
000883
001779
006159
001531
006600
005733
006572
000208
001827
003155
003166
001830
006579
000693
005020
001894
000891
004538
007257
005614
000888
001364
002482
000665
005767
003895
001315
004380
001653
001210
004505
002252
003665
001554
000777
002373
001578
006350
005285
002658
004975
002968
004102
001087
004997
003579
003342
005870
000864
005265
000458
004386
002869
002751
005416
005283
005992
004405
003460
001462
001299
006591
003270
003168
003783
004178
003263
005977
003215
001695
004913
006996
001551
005979
003016
003799
006869
003119
004826
003083
001392
006504
006687
003851
001754
006972
001553
005076
003581
006319
000198
003433
003220
000353
006965
007224
001821
002849
004970
002368
007002
001456
005388
000817
002412
005953
001119
002421
005775
002312
004812
005490
005376
005016
002647
005629
005865
005129
001434
002361
002416
007465
005928
005300
006261
002798
006231
005778
004877
000245
007476
005847
002514
000331
003516
004325
003978
001957
006094
005690
005358
006184
002560
003696
007338
006021
001811
002829
002445
006654
006174
004177
005945
002065
003995
004897
001405
001543
001211
007368
001915
002851
003644
002351
005380
003586
004729
001622
003020
001340
004379
002133
000720
002005
006277
005671
002792
004512
002634
003329
001981
003294
000277
000596
002609
001624
005604
003765
000518
003009
001988
005692
006608
006528
001644
003390
000177
005846
003084
004712
007286
002915
005278
003438
003380
001870
001319
004855
000100
000085
003178
002480
002649
001873
003149
000364
007118
000287
004024
003955
000663
001790
002954
003256
005824
006400
007094
000937
001454
000861
003455
001572
002189
002616
004602
004950
007333
003249
006268
001467
003018
004235
007179
000342
000487
006825
005258
006412
005813
007189
002943
003235
002007
003759
000073
006605
002536
001504
002180
007129
004836
002149
002379
003377
006704
002496
002870
005837
004955
000043
000675
001910
002015
000892
003740
003589
004039
007018
005898
004106
003615
002551
002164
006382
001636
001061
004240
005208
002781
005207
002648
006226
004977
002723
000622
004524
004736
004558
004371
005083
003015
000310
000685
007414
002024
000339
000295
000501
004058
006912
001310
000972
000105
005750
005462
006414
001913
004641
000367
000896
002668
003597
000602
005169
003966
003906
007058
001030
004908
006352
002654
000514
000091
000051
002264
001685
002331
004479
004245
001687
003013
002596
005615
002819
003246
004313
004431
000228
000713
003790
006911
001895
004923
000490
000131
003933
004919
003039
002926
002825
005675
004617
001850
006958
002940
002859
002533
006788
003545
003844
005987
001060
001595
001472
000016
006438
000079
000067
006307
005795
006432
007013
000121
001470
005261
007316
004341
004236
007066
005200
002547
002614
007020
002381
000296
004286
004910
005575
007171
002371
005721
002172
006775
005069
002253
002481
005412
001430
003360
002791
001652
004018
006255
003606
004775
001532
007457
000018
001611
006894
005059
001725
001169
005418
000770
004229
003971
001692
005031
003437
003709
003560
005825
002780
005408
001220
003766
001529
001422
005131
006749
004536
001998
004389
001788
004906
000254
007301
000910
001100
005436
002517
005137
000796
004218
000965
001921
004304
000068
003564
002275
001992
003929
003792
000488
003666
006172
004971
001505
007195
007156
006814
002933
004837
006179
003206
005419
006256
005061
004194
007203
006728
000982
003442
002339
000992
002465
002822
006431
001404
000780
000142
006011
001964
002762
006082
004265
005891
003687
003369
002595
000412
005248
000144
003238
006627
000011
003784
005688
005114
001409
007446
006700
005270
000797
006546
006827
006809
004273
003140
000788
004094
003359
004757
001661
004827
007254
005281
006645
006969
007092
003921
005608
001672
000384
002175
001049
003472
001716
004170
000535
000764
002487
004747
005663
003398
001785
004283
001648
002095
001366
005838
001899
002055
000834
002244
001258
005550
003376
005597
007471
006206
004357
003724
001809
001197
005424
004523
003888
006311
002192
003789
000839
002518
004951
006584
005749
006120
003636
002204
003446
002222
002736
004628
003188
006931
002469
005655
001598
002343
002069
005252
001312
004005
001561
001219
005701
006880
001698
001325
006019
004613
005823
004176
002269
004446
001283
002842
006776
003158
006234
007285
004230
005183
004112
005641
004847
001130
006283
001017
005202
007057
003463
000880
000466
005845
000022
004575
002732
003044
003063
003223
006214
005485
006802
005895
002512
001566
004939
000860
006657
004428
005880
004488
001360
000608
006221
001196
000464
004442
003540
003518
006835
001238
005980
005085
006916
004233
001563
001953
004703
002887
002750
000227
005781
001829
005022
005636
005500
006135
005583
004856
000776
007474
003213
000578
005594
007479
004146
004468
001204
004802
004114
002199
002063
001496
001357
001428
002289
002904
004786
002920
003526
005696
001958
005165
000317
003454
006006
004261
004583
005665
005106
005524
002774
001700
000460
005902
001358
001570
000505
005934
001655
001748
005504
000217
004755
001796
005395
000575
007264
003105
006242
002211
000119
004347
000435
004552
004662
006072
000256
006610
007390
004899
002913
005520
006924
003743
001401
003612
000538
006893
003868
001950
003108
007197
004952
005792
000908
002032
006112
005715
003245
005232
005215
001420
000097
000220
000794
006323
000813
002466
005506
002802
003861
001987
004358
003556
005517
000830
007334
003195
005991
003286
006109
003664
004057
000087
004561
001766
005235
003912
001523
006293
000763
002084
003391
004328
000846
000868
000127
003260
002322
002096
004945
005773
006842
003641
006564
000632
005102
005579
002973
004964
000154
004499
002571
000902
005043
004090
001378
003057
003722
003336
004796
001184
006985
006536
006742
005432
002009
001000
005723
006056
002033
006022
003279
006675
005863
002039
001626
002886
006020
001866
005867
002146
003918
002031
004676
003198
002453
002323
003523
006188
003424
007186
003414
000523
001482
004199
007106
004642
006132
004253
004047
000069
002235
004937
006547
005394
005547
005679
000474
005862
000133
002676
005042
004390
005976
000606
000574
003773
001362
000681
001642
004167
000689
000580
007054
003843
007354
005435
005397
002273
007090
003123
000781
000313
003049
004497
000088
002321
002660
005224
002589
000990
004015
006793
002184
003985
005989
002354
000115
005611
002203
006976
000041
003593
001073
002208
004050
002593
006131
003953
001440
006620
000418
004044
004771
006621
005684
002865
006346
003734
001034
003510
000913
002227
003115
000529
003014
005766
007021
007045
002400
004882
006919
004870
001425
006378
007324
002494
001948
004292
005541
004749
000214
002288
000955
001112
005539
003512
004019
002240
006304
001231
000180
004507
004889
003699
007425
003877
002949
004115
000556
006259
001944
001335
003590
001789
002358
003761
006325
006200
000431
001110
001968
006688
001903
002855
002390
003261
000997
005850
001620
005960
006397
000034
006197
002191
000866
003218
001250
000417
005769
006460
005964
002296
006479
005533
000461
005035
000544
000759
003908
005527
002198
007361
004372
007035
001845
006336
003436
000470
000573
005940
000845
007400
003772
005591
002705
000549
006199
001860
000425
000441
005367
003267
005286
006303
002897
004014
005622
003078
005771
003555
006630
002119
005398
001048
002637
003941
002544
005266
006448
006871
006538
005797
005627
005332
004500
005152
002313
004066
006967
005340
005802
004355
007222
000243
003990
004645
006203
003184
006740
003871
007213
004586
005025
006933
003415
004784
001637
004227
000815
002261
004097
001402
002125
001799
004144
004197
004690
000007
001455
003626
000150
003619
000585
001918
004382
001168
003157
006717
006413
004084
003501
001157
003698
004296
002623
003212
001373
006264
005117
001436
004607
005339
000219
003936
001990
003845
007281
006162
006447
006743
002311
006616
001956
001490
001447
006461
003388
002987
006254
001607
006757
003493
001278
002070
003935
005814
002992
000344
007379
003949
006326
006708
005195
003919
003372
002922
000253
001671
000652
006004
003091
000374
002436
006544
007001
003262
006501
003650
006826
001914
003976
001876
006290
003968
002679
001973
001326
004504
006111
006367
006335
001816
003846
005060
000705
004088
002301
002939
004022
003264
001792
000221
000200
002114
005263
002537
005651
005995
000406
000071
005497
005009
004408
006918
001316
007276
001696
000292
001760
005353
002703
005370
004436
000855
004872
005518
006476
000179
001171
003963
001738
006313
003282
002309
004359
002650
006428
002217
003363
005776
002950
001847
003036
001518
003362
004671
001791
006545
005521
002464
006119
003485
005118
002231
005509
005548
005355
001628
001341
004020
005364
000009
001479
005562
007443
001534
001803
002576
001080
002587
004264
003509
006702
000929
000836
003023
005277
006681
000349
002259
007152
005742
002364
003638
002352
002335
006237
003760
004664
005099
001541
003176
004478
002983
004601
000129
003911
004067
007039
007051
003209
002268
000045
002687
003796
000649
001369
004841
006983
006271
002611
000210
001769
004845
004099
002167
002788
004484
006257
005417
001040
001720
001677
001974
006690
005554
003862
003533
000232
003258
002016
002813
001328
001951
005097
006449
003602
006859
000471
003686
006886
003706
003663
002110
000712
005023
000980
000857
003378
004169
007218
004317
000576
002779
000155
003525
007167
007317
001103
002104
007268
005810
004565
006318
005146
006946
007298
000438
000205
005373
004828
003561
004200
000735
006175
002871
006857
006296
004466
000747
001842
000184
001200
006619
000946
006457
006495
006736
000092
006000
001413
000258
001276
004135
005788
005871
002672
005357
002542
004654
003486
001691
003293
004823
006245
005362
001393
004376
005860
005720
001917
002639
005512
002221
003382
006298
007355
004639
001371
000484
005196
001770
005011
006328
005553
006766
001874
006642
000348
003725
004378
007121
004772
003603
000959
002157
005791
005654
000149
006361
006779
005119
000316
003744
005203
000286
001916
002435
001311
003494
006904
000371
002176
006141
006718
005957
000178
000599
006929
003887
000330
005959
005496
000742
005950
005348
003008
006810
000998
003498
003979
004637
000389
000172
000882
004181
004555
005908
007160
001506
003549
006846
003200
002302
001976
006253
005264
000046
004808
006138
004982
002573
007196
004031
004267
000918
003848
006137
004774
001016
004017
007134
000592
003334
005886
001280
005250
003317
004070
006079
001165
001556
005758
002297
003757
004754
003253
001499
000516
000853
003340
002998
001930
004840
004880
004702
000238
001906
005396
005543
006680
004056
001484
005815
004670
007044
003720
002714
006134
002470
007306
002907
000724
000166
003994
000758
006883
005468
003477
002083
006248
000433
004182
004477
002377
002803
007429
004661
006153
004525
000410
000447
003314
005210
005092
002754
003713
001351
000886
004332
002843
002738
000743
007363
003244
005770
005612
006500
006092
003939
001962
006635
006358
000162
000449
005228
002006
000164
004459
000306
000799
002771
000060
003534
000924
005428
005039
004212
004274
003548
002838
000271
006492
007206
006838
005693
002210
002535
003585
004297
004537
001837
004351
002816
002092
007366
004884
003017
000919
002388
000325
002923
005469
005849
000787
006923
005211
000906
005719
005621
006160
004515
004287
006205
007239
000363
001264
006241
000080
004957
006402
002823
005457
002990
006998
003598
003960
000276
001708
006080
000871
003361
005123
003499
000160
005238
001744
001686
000605
004069
004473
000562
001414
003173
001320
006631
006840
003285
001023
003832
005998
004506
005159
003551
005384
002241
000225
003767
001515
007226
005752
004625
002981
006851
004037
005646
003139
002622
005620
006059
003037
005833
003839
003040
002946
006640
005508
005774
003701
003138
006567
001896
000138
000762
006081
007341
003745
003278
005272
001688
000582
003505
002965
001857
005734
007234
000739
005874
001459
000072
003154
001093
004013